{
  "login" : [
    {
      "userName" : "Rocky",
      "userPassword": "1234",
      "role": "Admin",
      "userId": 12,
      "isActive": true
    },
    {
      "userName" : "Test",
      "userPassword": "1234",
      "role": "ClientAdmin",
      "userId": 22,
      "isActive": true
    }
  ]
}
